…
  
}

mu_0 = sim_tidy_t(0)
```

    ## Warning: `cols` is now required when using unnest().
    ## Please use `cols = c(temp_res)`

``` r
mu_0
```

    ## # A tibble: 5,000 x 3
    ##       mu estimate p.value
    ##    <dbl>    <dbl>   <dbl>
    ##  1     0    0.286  0.762 
    ##  2     0   -0.455  0.466 
    ##  3     0    0.483  0.571 
    ##  4     0    1.24   0.201 
    ##  5     0    2.06   0.0255
    ##  6     0    1.17   0.244 
    ##  7     0    2.42   0.0259
    ##  8     0    0.614  0.548 
    ##  9     0    0.969  0.323 
    ## 10     0    0.519  0.581 
    ## # ... with 4,990 more rows
…
